[
	{
		"id": 1,
		"name": "Bebidas",
		"sublevels": [
			{
				"id": 1,
				"name": "Gaseosas",
				"sublevels": [
					{
						"id": 2,
						"name": "Con azúcar"
					},
					{
						"id": 3,
						"name": "Sin azúcar"
					}
				]
			}
		]
	},
	{
		"id": 2,
		"name": "Almuerzos",
		"sublevels": [
			{
				"id": 4,
				"name": "Carnes",
				"sublevels": [
					{
						"id": 5,
						"name": "Carne de res"
					},
					{
						"id": 6,
						"name": "Carne de cerdo",
						"sublevels": [
							{
								"id": 7,
								"name": "Baja en sal"
							}
						]
					}
				]
			}
		]
	},
	{
		"id": 3,
		"name": "Desayunos",
		"sublevels": [
			{
				"id": 8,
				"name": "Fake 5"
			},
			{
				"id": 9,
				"name": "Fake 6"
			}
		]
	},
	{
		"id": 4,
		"name": "Vinos",
		"sublevels": [
			{
				"id": 10,
				"name": "Fake 8"
			},
			{
				"id": 11,
				"name": "Fake 9"
			}
		]
	}
]